{
  "prepare_queue": {
    "installed": [],
    "uninstalled": []
  },
  "config_munge": {
    "files": {}
  },
  "installed_plugins": {
    "cordova-custom-config": {
      "PACKAGE_NAME": "io.ionic.starter"
    },
    "cordova-plugin-actionsheet": {
      "PACKAGE_NAME": "io.ionic.starter"
    },
    "cordova-plugin-camera": {
      "CAMERA_USAGE_DESCRIPTION": " ",
      "PHOTOLIBRARY_USAGE_DESCRIPTION": " ",
      "PACKAGE_NAME": "io.ionic.starter"
    },
    "cordova-plugin-device": {
      "PACKAGE_NAME": "io.ionic.starter"
    },
    "cordova-plugin-dialogs": {
      "PACKAGE_NAME": "io.ionic.starter"
    },
    "cordova-plugin-file": {
      "PACKAGE_NAME": "io.ionic.starter"
    },
    "cordova-plugin-file-transfer": {
      "PACKAGE_NAME": "io.ionic.starter"
    },
    "cordova-plugin-filepath": {
      "PACKAGE_NAME": "io.ionic.starter"
    },
    "cordova-plugin-ionic-webview": {
      "PACKAGE_NAME": "io.ionic.starter"
    },
    "cordova-plugin-media": {
      "MICROPHONE_USAGE_DESCRIPTION": " ",
      "PACKAGE_NAME": "io.ionic.starter"
    },
    "cordova-plugin-nativeaudio": {
      "PACKAGE_NAME": "io.ionic.starter"
    },
    "cordova-plugin-splashscreen": {
      "PACKAGE_NAME": "io.ionic.starter"
    },
    "cordova-plugin-whitelist": {
      "PACKAGE_NAME": "io.ionic.starter"
    },
    "ionic-plugin-keyboard": {
      "PACKAGE_NAME": "io.ionic.starter"
    }
  },
  "dependent_plugins": {
    "cordova-plugin-audio-recorder-api": {
      "PACKAGE_NAME": "io.ionic.starter"
    },
    "cordova-plugin-compat": {
      "PACKAGE_NAME": "io.ionic.starter"
    }
  }
}